{
    "tracks": {
        "href": "https://api.spotify.com/v1/search?query=artist%3A6ix9ine&type=track&offset=0&limit=3",
        "items": [
            {
                "album": {
                    "album_type": "single",
                    "artists": [
                        {
                            "external_urls": {
                                "spotify": "https://open.spotify.com/artist/7gZfnEnfiaHzxARJ2LeXrf"
                            },
                            "href": "https://api.spotify.com/v1/artists/7gZfnEnfiaHzxARJ2LeXrf",
                            "id": "7gZfnEnfiaHzxARJ2LeXrf",
                            "name": "6ix9ine",
                            "type": "artist",
                            "uri": "spotify:artist:7gZfnEnfiaHzxARJ2LeXrf"
                        }
                    ],
                    "available_markets": [
                        "AD",
                        "AE",
                        "AL",
                        "AR",
                        "AT",
                        "AU",
                        "BA",
                        "BE",
                        "BG",
                        "BH",
                        "BO",
                        "BR",
                        "BY",
                        "CA",
                        "CH",
                        "CL",
                        "CO",
                        "CR",
                        "CY",
                        "CZ",
                        "DE",
                        "DK",
                        "DO",
                        "DZ",
                        "EC",
                        "EE",
                        "EG",
                        "ES",
                        "FI",
                        "FR",
                        "GB",
                        "GR",
                        "GT",
                        "HK",
                        "HN",
                        "HR",
                        "HU",
                        "ID",
                        "IE",
                        "IL",
                        "IN",
                        "IS",
                        "IT",
                        "JO",
                        "JP",
                        "KW",
                        "KZ",
                        "LB",
                        "LI",
                        "LT",
                        "LU",
                        "LV",
                        "MA",
                        "MC",
                        "MD",
                        "ME",
                        "MK",
                        "MT",
                        "MX",
                        "MY",
                        "NI",
                        "NL",
                        "NO",
                        "NZ",
                        "OM",
                        "PA",
                        "PE",
                        "PH",
                        "PL",
                        "PS",
                        "PT",
                        "PY",
                        "QA",
                        "RO",
                        "RS",
                        "RU",
                        "SA",
                        "SE",
                        "SG",
                        "SI",
                        "SK",
                        "SV",
                        "TH",
                        "TN",
                        "TR",
                        "TW",
                        "UA",
                        "US",
                        "UY",
                        "VN",
                        "XK",
                        "ZA"
                    ],
                    "external_urls": {
                        "spotify": "https://open.spotify.com/album/4kIWi5LcrqAWQD09CE05Ps"
                    },
                    "href": "https://api.spotify.com/v1/albums/4kIWi5LcrqAWQD09CE05Ps",
                    "id": "4kIWi5LcrqAWQD09CE05Ps",
                    "images": [
                        {
                            "height": 640,
                            "url": "https://i.scdn.co/image/ab67616d0000b2733e68a2c61ab786e2526f7269",
                            "width": 640
                        },
                        {
                            "height": 300,
                            "url": "https://i.scdn.co/image/ab67616d00001e023e68a2c61ab786e2526f7269",
                            "width": 300
                        },
                        {
                            "height": 64,
                            "url": "https://i.scdn.co/image/ab67616d000048513e68a2c61ab786e2526f7269",
                            "width": 64
                        }
                    ],
                    "name": "GOOBA",
                    "release_date": "2020-05-08",
                    "release_date_precision": "day",
                    "total_tracks": 1,
                    "type": "album",
                    "uri": "spotify:album:4kIWi5LcrqAWQD09CE05Ps"
                },
                "artists": [
                    {
                        "external_urls": {
                            "spotify": "https://open.spotify.com/artist/7gZfnEnfiaHzxARJ2LeXrf"
                        },
                        "href": "https://api.spotify.com/v1/artists/7gZfnEnfiaHzxARJ2LeXrf",
                        "id": "7gZfnEnfiaHzxARJ2LeXrf",
                        "name": "6ix9ine",
                        "type": "artist",
                        "uri": "spotify:artist:7gZfnEnfiaHzxARJ2LeXrf"
                    }
                ],
                "available_markets": [
                    "AD",
                    "AE",
                    "AL",
                    "AR",
                    "AT",
                    "AU",
                    "BA",
                    "BE",
                    "BG",
                    "BH",
                    "BO",
                    "BR",
                    "BY",
                    "CA",
                    "CH",
                    "CL",
                    "CO",
                    "CR",
                    "CY",
                    "CZ",
                    "DE",
                    "DK",
                    "DO",
                    "DZ",
                    "EC",
                    "EE",
                    "EG",
                    "ES",
                    "FI",
                    "FR",
                    "GB",
                    "GR",
                    "GT",
                    "HK",
                    "HN",
                    "HR",
                    "HU",
                    "ID",
                    "IE",
                    "IL",
                    "IN",
                    "IS",
                    "IT",
                    "JO",
                    "JP",
                    "KW",
                    "KZ",
                    "LB",
                    "LI",
                    "LT",
                    "LU",
                    "LV",
                    "MA",
                    "MC",
                    "MD",
                    "ME",
                    "MK",
                    "MT",
                    "MX",
                    "MY",
                    "NI",
                    "NL",
                    "NO",
                    "NZ",
                    "OM",
                    "PA",
                    "PE",
                    "PH",
                    "PL",
                    "PS",
                    "PT",
                    "PY",
                    "QA",
                    "RO",
                    "RS",
                    "RU",
                    "SA",
                    "SE",
                    "SG",
                    "SI",
                    "SK",
                    "SV",
                    "TH",
                    "TN",
                    "TR",
                    "TW",
                    "UA",
                    "US",
                    "UY",
                    "VN",
                    "XK",
                    "ZA"
                ],
                "disc_number": 1,
                "duration_ms": 132303,
                "explicit": true,
                "external_ids": {
                    "isrc": "QZA742002191"
                },
                "external_urls": {
                    "spotify": "https://open.spotify.com/track/4NhDYoQTYCdWHTvlbGVgwo"
                },
                "href": "https://api.spotify.com/v1/tracks/4NhDYoQTYCdWHTvlbGVgwo",
                "id": "4NhDYoQTYCdWHTvlbGVgwo",
                "is_local": false,
                "name": "GOOBA",
                "popularity": 90,
                "preview_url": "https://p.scdn.co/mp3-preview/0ba4a78b8cd53f81a0b6ed5a547e6f384dd7feb9?cid=86b6def5e40e4627a4cacf8042691496",
                "track_number": 1,
                "type": "track",
                "uri": "spotify:track:4NhDYoQTYCdWHTvlbGVgwo"
            },
            {
                "album": {
                    "album_type": "single",
                    "artists": [
                        {
                            "external_urls": {
                                "spotify": "https://open.spotify.com/artist/7gZfnEnfiaHzxARJ2LeXrf"
                            },
                            "href": "https://api.spotify.com/v1/artists/7gZfnEnfiaHzxARJ2LeXrf",
                            "id": "7gZfnEnfiaHzxARJ2LeXrf",
                            "name": "6ix9ine",
                            "type": "artist",
                            "uri": "spotify:artist:7gZfnEnfiaHzxARJ2LeXrf"
                        },
                        {
                            "external_urls": {
                                "spotify": "https://open.spotify.com/artist/0hCNtLu0JehylgoiP8L4Gh"
                            },
                            "href": "https://api.spotify.com/v1/artists/0hCNtLu0JehylgoiP8L4Gh",
                            "id": "0hCNtLu0JehylgoiP8L4Gh",
                            "name": "Nicki Minaj",
                            "type": "artist",
                            "uri": "spotify:artist:0hCNtLu0JehylgoiP8L4Gh"
                        }
                    ],
                    "available_markets": [
                        "AD",
                        "AE",
                        "AL",
                        "AR",
                        "AT",
                        "AU",
                        "BA",
                        "BE",
                        "BG",
                        "BH",
                        "BO",
                        "BR",
                        "BY",
                        "CA",
                        "CH",
                        "CL",
                        "CO",
                        "CR",
                        "CY",
                        "CZ",
                        "DE",
                        "DK",
                        "DO",
                        "DZ",
                        "EC",
                        "EE",
                        "EG",
                        "ES",
                        "FI",
                        "FR",
                        "GB",
                        "GR",
                        "GT",
                        "HK",
                        "HN",
                        "HR",
                        "HU",
                        "ID",
                        "IE",
                        "IL",
                        "IN",
                        "IS",
                        "IT",
                        "JO",
                        "JP",
                        "KW",
                        "KZ",
                        "LB",
                        "LI",
                        "LT",
                        "LU",
                        "LV",
                        "MA",
                        "MC",
                        "MD",
                        "ME",
                        "MK",
                        "MT",
                        "MX",
                        "MY",
                        "NI",
                        "NL",
                        "NO",
                        "NZ",
                        "OM",
                        "PA",
                        "PE",
                        "PH",
                        "PL",
                        "PS",
                        "PT",
                        "PY",
                        "QA",
                        "RO",
                        "RS",
                        "RU",
                        "SA",
                        "SE",
                        "SG",
                        "SI",
                        "SK",
                        "SV",
                        "TH",
                        "TN",
                        "TR",
                        "TW",
                        "UA",
                        "US",
                        "UY",
                        "VN",
                        "XK",
                        "ZA"
                    ],
                    "external_urls": {
                        "spotify": "https://open.spotify.com/album/7k3BOYZVMerwnrGSTBPJwD"
                    },
                    "href": "https://api.spotify.com/v1/albums/7k3BOYZVMerwnrGSTBPJwD",
                    "id": "7k3BOYZVMerwnrGSTBPJwD",
                    "images": [
                        {
                            "height": 640,
                            "url": "https://i.scdn.co/image/ab67616d0000b273ee39017530114e6f8e5908cc",
                            "width": 640
                        },
                        {
                            "height": 300,
                            "url": "https://i.scdn.co/image/ab67616d00001e02ee39017530114e6f8e5908cc",
                            "width": 300
                        },
                        {
                            "height": 64,
                            "url": "https://i.scdn.co/image/ab67616d00004851ee39017530114e6f8e5908cc",
                            "width": 64
                        }
                    ],
                    "name": "TROLLZ (with Nicki Minaj)",
                    "release_date": "2020-06-12",
                    "release_date_precision": "day",
                    "total_tracks": 1,
                    "type": "album",
                    "uri": "spotify:album:7k3BOYZVMerwnrGSTBPJwD"
                },
                "artists": [
                    {
                        "external_urls": {
                            "spotify": "https://open.spotify.com/artist/7gZfnEnfiaHzxARJ2LeXrf"
                        },
                        "href": "https://api.spotify.com/v1/artists/7gZfnEnfiaHzxARJ2LeXrf",
                        "id": "7gZfnEnfiaHzxARJ2LeXrf",
                        "name": "6ix9ine",
                        "type": "artist",
                        "uri": "spotify:artist:7gZfnEnfiaHzxARJ2LeXrf"
                    },
                    {
                        "external_urls": {
                            "spotify": "https://open.spotify.com/artist/0hCNtLu0JehylgoiP8L4Gh"
                        },
                        "href": "https://api.spotify.com/v1/artists/0hCNtLu0JehylgoiP8L4Gh",
                        "id": "0hCNtLu0JehylgoiP8L4Gh",
                        "name": "Nicki Minaj",
                        "type": "artist",
                        "uri": "spotify:artist:0hCNtLu0JehylgoiP8L4Gh"
                    }
                ],
                "available_markets": [
                    "AD",
                    "AE",
                    "AL",
                    "AR",
                    "AT",
                    "AU",
                    "BA",
                    "BE",
                    "BG",
                    "BH",
                    "BO",
                    "BR",
                    "BY",
                    "CA",
                    "CH",
                    "CL",
                    "CO",
                    "CR",
                    "CY",
                    "CZ",
                    "DE",
                    "DK",
                    "DO",
                    "DZ",
                    "EC",
                    "EE",
                    "EG",
                    "ES",
                    "FI",
                    "FR",
                    "GB",
                    "GR",
                    "GT",
                    "HK",
                    "HN",
                    "HR",
                    "HU",
                    "ID",
                    "IE",
                    "IL",
                    "IN",
                    "IS",
                    "IT",
                    "JO",
                    "JP",
                    "KW",
                    "KZ",
                    "LB",
                    "LI",
                    "LT",
                    "LU",
                    "LV",
                    "MA",
                    "MC",
                    "MD",
                    "ME",
                    "MK",
                    "MT",
                    "MX",
                    "MY",
                    "NI",
                    "NL",
                    "NO",
                    "NZ",
                    "OM",
                    "PA",
                    "PE",
                    "PH",
                    "PL",
                    "PS",
                    "PT",
                    "PY",
                    "QA",
                    "RO",
                    "RS",
                    "RU",
                    "SA",
                    "SE",
                    "SG",
                    "SI",
                    "SK",
                    "SV",
                    "TH",
                    "TN",
                    "TR",
                    "TW",
                    "UA",
                    "US",
                    "UY",
                    "VN",
                    "XK",
                    "ZA"
                ],
                "disc_number": 1,
                "duration_ms": 202666,
                "explicit": true,
                "external_ids": {
                    "isrc": "QZA742002508"
                },
                "external_urls": {
                    "spotify": "https://open.spotify.com/track/3dVvWnj4D8JGkKvo6Hucso"
                },
                "href": "https://api.spotify.com/v1/tracks/3dVvWnj4D8JGkKvo6Hucso",
                "id": "3dVvWnj4D8JGkKvo6Hucso",
                "is_local": false,
                "name": "TROLLZ (with Nicki Minaj)",
                "popularity": 85,
                "preview_url": "https://p.scdn.co/mp3-preview/5dbb446f6bb7342d45073c9bb95f43cb2a5d5eec?cid=86b6def5e40e4627a4cacf8042691496",
                "track_number": 1,
                "type": "track",
                "uri": "spotify:track:3dVvWnj4D8JGkKvo6Hucso"
            },
            {
                "album": {
                    "album_type": "album",
                    "artists": [
                        {
                            "external_urls": {
                                "spotify": "https://open.spotify.com/artist/7gZfnEnfiaHzxARJ2LeXrf"
                            },
                            "href": "https://api.spotify.com/v1/artists/7gZfnEnfiaHzxARJ2LeXrf",
                            "id": "7gZfnEnfiaHzxARJ2LeXrf",
                            "name": "6ix9ine",
                            "type": "artist",
                            "uri": "spotify:artist:7gZfnEnfiaHzxARJ2LeXrf"
                        }
                    ],
                    "available_markets": [
                        "AD",
                        "AE",
                        "AL",
                        "AR",
                        "AT",
                        "AU",
                        "BA",
                        "BE",
                        "BG",
                        "BH",
                        "BO",
                        "BR",
                        "BY",
                        "CA",
                        "CH",
                        "CL",
                        "CO",
                        "CR",
                        "CY",
                        "CZ",
                        "DE",
                        "DK",
                        "DO",
                        "DZ",
                        "EC",
                        "EE",
                        "EG",
                        "ES",
                        "FI",
                        "FR",
                        "GB",
                        "GR",
                        "GT",
                        "HK",
                        "HN",
                        "HR",
                        "HU",
                        "ID",
                        "IE",
                        "IL",
                        "IN",
                        "IS",
                        "IT",
                        "JO",
                        "JP",
                        "KW",
                        "KZ",
                        "LB",
                        "LI",
                        "LT",
                        "LU",
                        "LV",
                        "MA",
                        "MC",
                        "MD",
                        "MK",
                        "MT",
                        "MX",
                        "MY",
                        "NI",
                        "NL",
                        "NO",
                        "NZ",
                        "OM",
                        "PA",
                        "PE",
                        "PH",
                        "PL",
                        "PT",
                        "PY",
                        "QA",
                        "RO",
                        "RS",
                        "RU",
                        "SA",
                        "SE",
                        "SG",
                        "SI",
                        "SK",
                        "SV",
                        "TH",
                        "TN",
                        "TR",
                        "TW",
                        "UA",
                        "US",
                        "UY",
                        "VN",
                        "XK",
                        "ZA"
                    ],
                    "external_urls": {
                        "spotify": "https://open.spotify.com/album/4f8pX9Vjs9uU5aKjqDNcDO"
                    },
                    "href": "https://api.spotify.com/v1/albums/4f8pX9Vjs9uU5aKjqDNcDO",
                    "id": "4f8pX9Vjs9uU5aKjqDNcDO",
                    "images": [
                        {
                            "height": 640,
                            "url": "https://i.scdn.co/image/ab67616d0000b2737b4d2b0d46fc5ed7f771329b",
                            "width": 640
                        },
                        {
                            "height": 300,
                            "url": "https://i.scdn.co/image/ab67616d00001e027b4d2b0d46fc5ed7f771329b",
                            "width": 300
                        },
                        {
                            "height": 64,
                            "url": "https://i.scdn.co/image/ab67616d000048517b4d2b0d46fc5ed7f771329b",
                            "width": 64
                        }
                    ],
                    "name": "DUMMY BOY",
                    "release_date": "2018-11-27",
                    "release_date_precision": "day",
                    "total_tracks": 13,
                    "type": "album",
                    "uri": "spotify:album:4f8pX9Vjs9uU5aKjqDNcDO"
                },
                "artists": [
                    {
                        "external_urls": {
                            "spotify": "https://open.spotify.com/artist/7gZfnEnfiaHzxARJ2LeXrf"
                        },
                        "href": "https://api.spotify.com/v1/artists/7gZfnEnfiaHzxARJ2LeXrf",
                        "id": "7gZfnEnfiaHzxARJ2LeXrf",
                        "name": "6ix9ine",
                        "type": "artist",
                        "uri": "spotify:artist:7gZfnEnfiaHzxARJ2LeXrf"
                    },
                    {
                        "external_urls": {
                            "spotify": "https://open.spotify.com/artist/0hCNtLu0JehylgoiP8L4Gh"
                        },
                        "href": "https://api.spotify.com/v1/artists/0hCNtLu0JehylgoiP8L4Gh",
                        "id": "0hCNtLu0JehylgoiP8L4Gh",
                        "name": "Nicki Minaj",
                        "type": "artist",
                        "uri": "spotify:artist:0hCNtLu0JehylgoiP8L4Gh"
                    },
                    {
                        "external_urls": {
                            "spotify": "https://open.spotify.com/artist/3CbYyyd8wH3RT6t0jwpdzC"
                        },
                        "href": "https://api.spotify.com/v1/artists/3CbYyyd8wH3RT6t0jwpdzC",
                        "id": "3CbYyyd8wH3RT6t0jwpdzC",
                        "name": "Murda Beatz",
                        "type": "artist",
                        "uri": "spotify:artist:3CbYyyd8wH3RT6t0jwpdzC"
                    }
                ],
                "available_markets": [
                    "AD",
                    "AE",
                    "AL",
                    "AR",
                    "AT",
                    "AU",
                    "BA",
                    "BE",
                    "BG",
                    "BH",
                    "BO",
                    "BR",
                    "BY",
                    "CA",
                    "CH",
                    "CL",
                    "CO",
                    "CR",
                    "CY",
                    "CZ",
                    "DE",
                    "DK",
                    "DO",
                    "DZ",
                    "EC",
                    "EE",
                    "EG",
                    "ES",
                    "FI",
                    "FR",
                    "GB",
                    "GR",
                    "GT",
                    "HK",
                    "HN",
                    "HR",
                    "HU",
                    "ID",
                    "IE",
                    "IL",
                    "IN",
                    "IS",
                    "IT",
                    "JO",
                    "JP",
                    "KW",
                    "KZ",
                    "LB",
                    "LI",
                    "LT",
                    "LU",
                    "LV",
                    "MA",
                    "MC",
                    "MD",
                    "MK",
                    "MT",
                    "MX",
                    "MY",
                    "NI",
                    "NL",
                    "NO",
                    "NZ",
                    "OM",
                    "PA",
                    "PE",
                    "PH",
                    "PL",
                    "PT",
                    "PY",
                    "QA",
                    "RO",
                    "RS",
                    "RU",
                    "SA",
                    "SE",
                    "SG",
                    "SI",
                    "SK",
                    "SV",
                    "TH",
                    "TN",
                    "TR",
                    "TW",
                    "UA",
                    "US",
                    "UY",
                    "VN",
                    "XK",
                    "ZA"
                ],
                "disc_number": 1,
                "duration_ms": 179404,
                "explicit": true,
                "external_ids": {
                    "isrc": "QMEU31894160"
                },
                "external_urls": {
                    "spotify": "https://open.spotify.com/track/2l8nEO0vsTRCRnGqQty6qx"
                },
                "href": "https://api.spotify.com/v1/tracks/2l8nEO0vsTRCRnGqQty6qx",
                "id": "2l8nEO0vsTRCRnGqQty6qx",
                "is_local": false,
                "name": "FEFE",
                "popularity": 80,
                "preview_url": "https://p.scdn.co/mp3-preview/975aa3227f4d06fba4cd0a3de39bd72e8acaed6e?cid=86b6def5e40e4627a4cacf8042691496",
                "track_number": 2,
                "type": "track",
                "uri": "spotify:track:2l8nEO0vsTRCRnGqQty6qx"
            }
        ],
        "limit": 3,
        "next": "https://api.spotify.com/v1/search?query=artist%3A6ix9ine&type=track&offset=3&limit=3",
        "offset": 0,
        "previous": null,
        "total": 43
    }
}